<svg xmlns="http://www.w3.org/2000/svg" width="23.585" height="37.634" viewBox="0 0 23.585 37.634">
  <g id="Camada_2" data-name="Camada 2" transform="translate(0 0)">
    <g id="Camada_1" data-name="Camada 1" transform="translate(0 0)">
      <path id="Caminho_1" data-name="Caminho 1" d="M156.137,273.532v-7.515a7.6,7.6,0,0,0-.257-1.994,6.72,6.72,0,0,0-.62-1.533,7.058,7.058,0,0,0-3.218-2.926h0a.785.785,0,0,0-1.09.723v5.991a2.159,2.159,0,1,0,1.57.009v-4.572a5.556,5.556,0,0,1,1.455,1.723,5.4,5.4,0,0,1,.5,1.524,6.28,6.28,0,0,1,.087,1.055v7.535a2.158,2.158,0,1,0,1.57-.023Zm-4.407-4.65a.589.589,0,1,1,.589-.589A.589.589,0,0,1,151.73,268.882Zm3.65,7.261a.589.589,0,1,1,.589-.589A.589.589,0,0,1,155.38,276.143Z" transform="translate(-138.254 -240.075)" fill="#6164bb"/>
      <path id="Caminho_2" data-name="Caminho 2" d="M63.077,272.253V260.287a.785.785,0,0,0-1.09-.723h0a7.07,7.07,0,0,0-3.14,2.926,6.719,6.719,0,0,0-.62,1.533,7.6,7.6,0,0,0-.255,1.994v2.067a2.159,2.159,0,1,0,1.57.009v-2.075a6.279,6.279,0,0,1,.087-1.055,5.349,5.349,0,0,1,1.875-3.247v10.529a2.159,2.159,0,1,0,1.57.009Zm-4.328-1.565a.589.589,0,1,1,.589-.589.589.589,0,0,1-.589.589Zm3.532,4.16a.589.589,0,1,1,.589-.589A.589.589,0,0,1,62.281,274.848Z" transform="translate(-52.306 -240.075)" fill="#6164bb"/>
      <path id="Caminho_3" data-name="Caminho 3" d="M52.47,190.35c.006-.073.014-.146.023-.22A.37.37,0,0,1,52.47,190.35Z" transform="translate(-48.351 -175.572)" fill="#6164bb"/>
      <path id="Caminho_4" data-name="Caminho 4" d="M21.405,29.44V25.382A7.581,7.581,0,0,0,20.16,21.03a9.216,9.216,0,0,0,.938-3.91c0-.05,0-.1,0-.153V15.457c0-.185-.007-.373-.019-.564l2.342-2.972a.762.762,0,0,0-.177-1.107h0A43.952,43.952,0,0,1,12.438.348l0-.007L12.428.333c-.009-.014-.019-.027-.029-.04L12.368.256A.747.747,0,0,0,12.3.187L12.261.156A.613.613,0,0,0,12.184.1L12.152.086l-.01-.005L12.106.063a.623.623,0,0,0-.083-.032L11.977.019,11.924.008,11.89,0A.731.731,0,0,0,11.7,0l-.034.005a.327.327,0,0,0-.053.011l-.042.011a.623.623,0,0,0-.087.032l-.036.018-.01.005L11.4.1l-.037.023-.04.029-.038.031a.747.747,0,0,0-.07.069l-.031.037a.477.477,0,0,0-.034.047l0,.007A43.869,43.869,0,0,1,.341,10.813h0a.762.762,0,0,0-.177,1.107L2.473,14.85c-.014.205-.021.408-.021.611v1.661a9.21,9.21,0,0,0,.971,3.971,7.058,7.058,0,0,0-.973,2.262,2.1,2.1,0,1,0,1.537.177,5.693,5.693,0,0,1,.354-.96,5.15,5.15,0,0,1,.919-1.348,3.916,3.916,0,0,1,.913-.738.764.764,0,1,0-.7-1.357,4.866,4.866,0,0,0-.946.683,7.716,7.716,0,0,1-.541-2.847V15.457q0-.359.034-.731c.006-.071.014-.142.022-.214a1.11,1.11,0,0,0-.266-.482L2.807,12.8l-.933-1.183c.633-.44,1.24-.89,1.821-1.345a46.342,46.342,0,0,0,6.921-6.731c.488-.586.883-1.09,1.177-1.48.3.4.707.916,1.211,1.522a46.441,46.441,0,0,0,6.655,6.507c.652.517,1.336,1.029,2.053,1.527l-.982,1.248-.919,1.165a1.415,1.415,0,0,0-.3.554c.008.059.015.118.02.176a6.814,6.814,0,0,1,.037.7v1.508a7.728,7.728,0,0,1-.522,2.8,4.846,4.846,0,0,0-.889-.632.764.764,0,1,0-.7,1.359,3.812,3.812,0,0,1,.863.687,5.154,5.154,0,0,1,.933,1.334,6.425,6.425,0,0,1,.621,2.871v4.094a2.105,2.105,0,1,0,1.532-.036ZM3,25.955a.573.573,0,1,1,.574-.573A.573.573,0,0,1,3,25.955Zm17.689,6.031a.573.573,0,1,1,.574-.573.573.573,0,0,1-.574.573Z" transform="translate(0 0.004)" fill="#6164bb"/>
      <path id="Caminho_5" data-name="Caminho 5" d="M32,222.407h0v0Z" transform="translate(-29.488 -205.232)" fill="#6164bb"/>
      <path id="Caminho_6" data-name="Caminho 6" d="M275.516,222.25v.157h0C275.515,222.355,275.516,222.3,275.516,222.25Z" transform="translate(-254.48 -205.232)" fill="#6164bb"/>
      <path id="Caminho_7" data-name="Caminho 7" d="M254.687,191.251a.29.29,0,0,1-.02-.181A1.017,1.017,0,0,1,254.687,191.251Z" transform="translate(-235.261 -176.44)" fill="#6164bb"/>
      <ellipse id="Elipse_1" data-name="Elipse 1" cx="1.453" cy="1.39" rx="1.453" ry="1.39" transform="translate(6.961 14.508)" fill="#6164bb"/>
      <ellipse id="Elipse_2" data-name="Elipse 2" cx="1.453" cy="1.39" rx="1.453" ry="1.39" transform="translate(13.718 14.508)" fill="#6164bb"/>
    </g>
  </g>
</svg>
